mc16_13TeV.364243.Sherpa_222_NNPDF30NNLO_WWZ_4l2v_EW6.deriv.DAOD_STDM5.e5887_e5984_s3126_r9781_r9778_p3366
mc16_13TeV.410501.PowhegPythia8EvtGen_A14_ttbar_hdamp258p75_nonallhad.deriv.DAOD_STDM5.e5458_s3126_r9781_r9778_p3366_tid12552559_00
data17_13TeV.00331085.physics_Main.deriv.DAOD_STDM5.f859_m1860_p3367
data17_13TeV.00337491.physics_Main.deriv.DAOD_STDM5.f873_m1885_p3367
